…
### In 2021 there were 38895 Marriages and 23467 Divorces

## Now for the NUTS-2 :

### For Marriages we have :

``` r
Marriages2
```

    ## # A tibble: 176 × 4
    ##    Region          year marriage code 
    ##    <chr>          <dbl>    <dbl> <chr>
    ##  1 SE11 Stockholm  2000    11542 SE11 
    ##  2 SE11 Stockholm  2001    10850 SE11 
    ##  3 SE11 Stockholm  2002    11451 SE11 
    ##  4 SE11 Stockholm  2003    11588 SE11 
    ##  5 SE11 Stockholm  2004    12711 SE11 
    ##  6 SE11 Stockholm  2005    12741 SE11 
    ##  7 SE11 Stockholm  2006    13314 SE11 
    ##  8 SE11 Stockholm  2007    14517 SE11 
    ##  9 SE11 Stockholm  2008    14887 SE11 
    ## 10 SE11 Stockholm  2009    14952 SE11 
    ## # … with 166 more rows
    ## # ℹ Use `print(n = ...)` to see more rows
…
### For Divorces we Have :

``` r
Divorces2
```

    ## # A tibble: 176 × 4
    ##    Region          year divorce code 
    ##    <chr>          <dbl>   <dbl> <chr>
    ##  1 SE11 Stockholm  2000    5540 SE11 
    ##  2 SE11 Stockholm  2001    5361 SE11 
    ##  3 SE11 Stockholm  2002    5361 SE11 
    ##  4 SE11 Stockholm  2003    5291 SE11 
    ##  5 SE11 Stockholm  2004    5355 SE11 
    ##  6 SE11 Stockholm  2005    5221 SE11 
    ##  7 SE11 Stockholm  2006    5611 SE11 
    ##  8 SE11 Stockholm  2007    5749 SE11 
    ##  9 SE11 Stockholm  2008    6025 SE11 
    ## 10 SE11 Stockholm  2009    6271 SE11 
    ## # … with 166 more rows
    ## # ℹ Use `print(n = ...)` to see more rows
…
## Now For NUTS-3 :

### For Marriages :

``` r
Marriages_NUTS_3_cleaned
```

    ## # A tibble: 462 × 3
    ##    Region                  year marriage
    ##    <chr>                  <dbl>    <dbl>
    ##  1 SE110 Stockholm county  2000    11542
    ##  2 SE110 Stockholm county  2001    10850
    ##  3 SE110 Stockholm county  2002    11451
    ##  4 SE110 Stockholm county  2003    11588
    ##  5 SE110 Stockholm county  2004    12711
    ##  6 SE110 Stockholm county  2005    12741
    ##  7 SE110 Stockholm county  2006    13314
    ##  8 SE110 Stockholm county  2007    14517
    ##  9 SE110 Stockholm county  2008    14887
    ## 10 SE110 Stockholm county  2009    14952
    ## # … with 452 more rows
    ## # ℹ Use `print(n = ...)` to see more rows
…
### For Divorces :

``` r
Divorces_NUTS_3_cleaned
```

    ## # A tibble: 462 × 3
    ##    Region                  year divorce
    ##    <chr>                  <dbl>   <dbl>
    ##  1 SE110 Stockholm county  2000    5540
    ##  2 SE110 Stockholm county  2001    5361
    ##  3 SE110 Stockholm county  2002    5361
    ##  4 SE110 Stockholm county  2003    5291
    ##  5 SE110 Stockholm county  2004    5355
    ##  6 SE110 Stockholm county  2005    5221
    ##  7 SE110 Stockholm county  2006    5611
    ##  8 SE110 Stockholm county  2007    5749
    ##  9 SE110 Stockholm county  2008    6025
    ## 10 SE110 Stockholm county  2009    6271
    ## # … with 452 more rows
    ## # ℹ Use `print(n = ...)` to see more rows
…
